{
  "images" : [
    {
      "filename" : "bg-login-750x1334.png",
      "idiom" : "iphone",
      "scale" : "1x"
    },
    {
      "filename" : "bg-login-1242x2688.png",
      "idiom" : "iphone",
      "scale" : "2x"
    },
    {
      "filename" : "bg-login-1242x2688-1.png",
      "idiom" : "iphone",
      "scale" : "3x"
    },
    {
      "filename" : "bg-login-2048x2732.png",
      "idiom" : "ipad",
      "scale" : "1x"
    },
    {
      "filename" : "bg-login-2048x2732-1.png",
      "idiom" : "ipad",
      "scale" : "2x"
    }
  ],
  "info" : {
    "author" : "xcode",
    "version" : 1
  }
}
